export PATH="/home/tdurieux/defects4j/framework/bin:$PATH";export JAVA_TOOL_OPTIONS=-Dfile.encoding=UTF8;export PATH="/usr/lib/jvm/java-1.7.0-openjdk-amd64/bin/:$PATH";cp -r /home/tdurieux/projects/math/math_41 /tmp/math_41_Genprog;cd /tmp/math_41_Genprog;defects4j compile;mkdir lib/;cp -r /home/tdurieux/defects4j/framework/projects/lib/* lib/;cp -r /home/tdurieux/defects4j/framework/projects/Math/lib/* lib/;find . -type f -name "package-info.java" -delete;
/home/tdurieux/defects4j-repair/src/python/core/../../../results/2015-august/Math/41/Genprog/result
cd /tmp/math_41_Genprog;export JAVA_TOOL_OPTIONS=-Dfile.encoding=UTF8;export PATH="/usr/lib/jvm/java-1.7.0-openjdk-amd64/bin/:$PATH";time java  -cp /home/tdurieux/defects4j-repair/src/python/core/../../..//libs/astor.jar fr.inria.main.evolution.MainjGenProg -mode statement -location . -dependencies lib/ -failing org.apache.commons.math.stat.descriptive.moment.VarianceTest: -package org.apache.commons -jvm4testexecution /usr/lib/jvm/java-1.7.0-openjdk-amd64/bin/ -javacompliancelevel 5 -maxgen 1000000 -seed 10 -maxtime 60  -scope local  -stopfirst true -flthreshold 0 -population 1 -srcjavafolder src/main/java/ -srctestfolder src/test/java/ -binjavafolder target/classes/ -bintestfolder target/test-classes/;echo "

Node: `hostname`
";echo "
Date: `date`
";rm -rf /tmp/math_41_Genprog;

2015-08-18 21:00:44,092 INFO main - End Repair Loops: NOT Found solution
2015-08-18 21:00:44,092 INFO main - 
Number solutions:0
2015-08-18 21:00:44,092 INFO main - 
All variants:
2015-08-18 21:00:44,092 INFO main - f 1.0, [Variant id: 9463, #gens: 957, #ops: 0, parent:-]
2015-08-18 21:00:44,092 INFO main - --Space: LOCAL
org.apache.commons.math.util.CompositeFormat=55|,org.apache.commons.math.util.MathUtils=40|,org.apache.commons.math.util.Incrementor=16|,org.apache.commons.math.stat.descriptive.moment.FirstMoment=30|,org.apache.commons.math.complex.Complex=192|,org.apache.commons.math.analysis.interpolation.BicubicSplineInterpolatingFunction=85|,org.apache.commons.math.stat.descriptive.moment.GeometricMean=25|,org.apache.commons.math.optimization.AbstractConvergenceChecker=8|,org.apache.commons.math.analysis.interpolation.BicubicSplineFunction=86|,org.apache.commons.math.optimization.fitting.CurveFitter=32|,org.apache.commons.math.analysis.polynomials.PolynomialFunction=108|,org.apache.commons.math.stat.descriptive.moment.Variance=103|,org.apache.commons.math.stat.descriptive.SynchronizedMultivariateSummaryStatistics=31|,org.apache.commons.math.stat.descriptive.summary.Sum=34|,org.apache.commons.math.optimization.SimpleVectorialValueChecker=12|,org.apache.commons.math.linear.MatrixUtils=183|,org.apache.commons.math.linear.ArrayRealVector=321|,org.apache.commons.math.analysis.solvers.UnivariateRealSolverUtils=78|,org.apache.commons.math.linear.QRDecomposition=153|,org.apache.commons.math.stat.descriptive.MultivariateSummaryStatistics=121|,org.apache.commons.math.stat.descriptive.summary.SumOfLogs=26|,org.apache.commons.math.linear.Array2DRowRealMatrix=183|,org.apache.commons.math.exception.util.ExceptionContext=70|,org.apache.commons.math.optimization.general.AbstractLeastSquaresOptimizer=56|,org.apache.commons.math.util.FastMath=1529|,org.apache.commons.math.stat.descriptive.moment.SecondMoment=18|,org.apache.commons.math.util.Precision=89|,org.apache.commons.math.optimization.fitting.WeightedObservedPoint=7|,org.apache.commons.math.analysis.solvers.AbstractPolynomialSolver=6|,org.apache.commons.math.util.MathArrays=354|,org.apache.commons.math.stat.descriptive.moment.Mean=43|,org.apache.commons.math.analysis.interpolation.BicubicSplineInterpolator=45|,org.apache.commons.math.stat.descriptive.rank.Max=29|,org.apache.commons.math.optimization.general.GaussNewtonOptimizer=40|,org.apache.commons.math.analysis.solvers.LaguerreSolver=115|,org.apache.commons.math.linear.RealVectorFormat=61|,org.apache.commons.math.stat.descriptive.summary.SumOfSquares=26|,org.apache.commons.math.linear.BlockRealMatrix=694|,org.apache.commons.math.analysis.interpolation.SmoothingPolynomialBicubicSplineInterpolator=39|,org.apache.commons.math.exception.util.ArgUtils=9|,org.apache.commons.math.optimization.VectorialPointValuePair=10|,org.apache.commons.math.analysis.interpolation.SplineInterpolator=37|,org.apache.commons.math.util.FastMathLiteralArrays=6|,org.apache.commons.math.analysis.polynomials.PolynomialSplineFunction=33|,org.apache.commons.math.linear.AbstractRealMatrix=375|,org.apache.commons.math.stat.descriptive.AbstractUnivariateStatistic=42|,org.apache.commons.math.analysis.solvers.BaseAbstractUnivariateRealSolver=34|,org.apache.commons.math.stat.descriptive.rank.Min=29|,org.apache.commons.math.optimization.direct.BaseAbstractVectorialOptimizer=29|,org.apache.commons.math.optimization.fitting.PolynomialFitter=3|,org.apache.commons.math.stat.descriptive.moment.VectorialCovariance=52|,
2015-08-18 21:00:44,092 INFO main - 
----stats: 
2015-08-18 21:00:44,092 INFO main - 
spaces navigation: [256]: {(CtLocalVariableImpl| size: 9| alreadyanalyzed| LOCAL| REPLACE) =494, (CtForImpl| size: 103| notcompiles| LOCAL| INSERT_AFTER) =24, (CtAssignmentImpl| size: 42| notcompiles| LOCAL| INSERT_AFTER) =9, (CtAssignmentImpl| size: 30| alreadyanalyzed| LOCAL| INSERT_AFTER) =8, (CtLocalVariableImpl| size: 34| notcompiles| LOCAL| INSERT_BEFORE) =14, (CtReturnImpl| size: 6| notcompiles| LOCAL| REPLACE) =2, (CtOperatorAssignmentImpl| size: 3| notcompiles| LOCAL| REPLACE) =4, (CtInvocationImpl| size: 42| notcompiles| LOCAL| INSERT_AFTER) =21, (CtForImpl| size: 43| notcompiles| LOCAL| INSERT_BEFORE) =10, (CtOperatorAssignmentImpl| size: 34| notcompiles| LOCAL| INSERT_BEFORE) =11, (CtReturnImpl| size: 43| compiles| LOCAL| INSERT_BEFORE) =20, (CtLocalVariableImpl| size: 43| notcompiles| LOCAL| INSERT_BEFORE) =63, (CtOperatorAssignmentImpl| size: 103| compiles| LOCAL| INSERT_AFTER) =84, (CtIfImpl| size: 34| compiles| LOCAL| INSERT_AFTER) =24, (CtOperatorAssignmentImpl| size: 103| alreadyanalyzed| LOCAL| INSERT_BEFORE) =77, (CtInvocationImpl| size: 103| alreadyanalyzed| LOCAL| INSERT_AFTER) =2037, (CtLocalVariableImpl| size: 34| notcompiles| LOCAL| INSERT_AFTER) =14, (CtIfImpl| size: 20| alreadyanalyzed| LOCAL| REPLACE) =2124, (CtAssignmentImpl| size: 30| compiles| LOCAL| INSERT_AFTER) =12, (CtAssignmentImpl| size: 15| compiles| LOCAL| REPLACE) =20, (CtIfImpl| size: 12| alreadyanalyzed| LOCAL| REPLACE) =1123, (CtInvocationImpl| size: 103| alreadyanalyzed| LOCAL| INSERT_BEFORE) =3387, (CtLocalVariableImpl| size: 42| notcompiles| LOCAL| INSERT_BEFORE) =9, (CtAssignmentImpl| size: 5| alreadyanalyzed| LOCAL| REPLACE) =9, (CtIfImpl| size: 42| compiles| LOCAL| INSERT_AFTER) =144, (CtLocalVariableImpl| size: 43| alreadyanalyzed| LOCAL| INSERT_BEFORE) =665, (CtReturnImpl| size: 8| compiles| LOCAL| REPLACE) =2, (CtInvocationImpl| size: 42| compiles| LOCAL| INSERT_BEFORE) =30, (CtAssignmentImpl| size: 42| alreadyanalyzed| LOCAL| INSERT_AFTER) =9, (CtForImpl| size: 34| compiles| LOCAL| INSERT_AFTER) =23, (CtReturnImpl| size: 6| compiles| LOCAL| REPLACE) =2, (CtForImpl| size: 43| compiles| LOCAL| INSERT_BEFORE) =20, (CtAssignmentImpl| size: 18| alreadyanalyzed| LOCAL| INSERT_AFTER) =17, (CtLocalVariableImpl| size: 43| compiles| LOCAL| INSERT_AFTER) =79, (CtInvocationImpl| size: 43| alreadyanalyzed| LOCAL| INSERT_BEFORE) =442, (CtInvocationImpl| size: 103| compiles| LOCAL| INSERT_BEFORE) =87, (CtAssignmentImpl| size: 103| compiles| LOCAL| INSERT_BEFORE) =104, (CtAssignmentImpl| size: 8| alreadyanalyzed| LOCAL| REPLACE) =165, (CtUnaryOperatorImpl| size: 42| alreadyanalyzed| LOCAL| INSERT_BEFORE) =35, (CtReturnImpl| size: 34| alreadyanalyzed| LOCAL| INSERT_AFTER) =272, (CtOperatorAssignmentImpl| size: 103| notcompiles| LOCAL| INSERT_BEFORE) =41, (CtForImpl| size: 42| notcompiles| LOCAL| INSERT_AFTER) =8, (CtAssignmentImpl| size: 15| alreadyanalyzed| LOCAL| REPLACE) =115, (CtReturnImpl| size: 34| compiles| LOCAL| INSERT_BEFORE) =14, (CtUnaryOperatorImpl| size: 1| alreadyanalyzed| LOCAL| REPLACE) =14, (CtLocalVariableImpl| size: 3| compiles| LOCAL| REPLACE) =1, (CtIfImpl| size: 34| compiles| LOCAL| INSERT_BEFORE) =22, (CtReturnImpl| size: 42| compiles| LOCAL| INSERT_BEFORE) =38, (CtOperatorAssignmentImpl| size: 43| notcompiles| LOCAL| INSERT_BEFORE) =14, (CtInvocationImpl| size: 18| alreadyanalyzed| LOCAL| INSERT_BEFORE) =60, (CtReturnImpl| size: 43| notcompiles| LOCAL| INSERT_AFTER) =14, (CtIfImpl| size: 4| alreadyanalyzed| LOCAL| REPLACE) =73, (CtReturnImpl| size: 34| alreadyanalyzed| LOCAL| INSERT_BEFORE) =94, (CtReturnImpl| size: 15| alreadyanalyzed| LOCAL| REPLACE) =1412, (CtInvocationImpl| size: 18| alreadyanalyzed| LOCAL| REPLACE) =1422, (CtReturnImpl| size: 9| alreadyanalyzed| LOCAL| REPLACE) =174, (CtReturnImpl| size: 8| alreadyanalyzed| LOCAL| REPLACE) =215, (CtIfImpl| size: 42| notcompiles| LOCAL| INSERT_BEFORE) =69, (CtAssignmentImpl| size: 30| alreadyanalyzed| LOCAL| INSERT_BEFORE) =6, (CtAssignmentImpl| size: 103| compiles| LOCAL| INSERT_AFTER) =84, (CtIfImpl| size: 42| alreadyanalyzed| LOCAL| INSERT_BEFORE) =89, (CtIfImpl| size: 43| compiles| LOCAL| INSERT_AFTER) =21, (CtInvocationImpl| size: 43| notcompiles| LOCAL| INSERT_BEFORE) =11, (CtLocalVariableImpl| size: 103| notcompiles| LOCAL| INSERT_AFTER) =149, (CtLocalVariableImpl| size: 103| alreadyanalyzed| LOCAL| INSERT_AFTER) =796, (CtIfImpl| size: 42| notcompiles| LOCAL| INSERT_AFTER) =91, (CtAssignmentImpl| size: 5| compiles| LOCAL| REPLACE) =2, (CtForImpl| size: 34| alreadyanalyzed| LOCAL| INSERT_BEFORE) =41, (CtInvocationImpl| size: 43| notcompiles| LOCAL| INSERT_AFTER) =11, (CtInvocationImpl| size: 43| compiles| LOCAL| INSERT_BEFORE) =17, (CtLocalVariableImpl| size: 43| notcompiles| LOCAL| INSERT_AFTER) =60, (CtUnaryOperatorImpl| size: 42| notcompiles| LOCAL| INSERT_BEFORE) =12, (CtInvocationImpl| size: 12| alreadyanalyzed| LOCAL| REPLACE) =131, (CtInvocationImpl| size: 12| notcompiles| LOCAL| REPLACE) =2, (CtLocalVariableImpl| size: 17| alreadyanalyzed| LOCAL| REPLACE) =3668, (CtReturnImpl| size: 34| notcompiles| LOCAL| INSERT_BEFORE) =13, (CtOperatorAssignmentImpl| size: 103| compiles| LOCAL| INSERT_BEFORE) =84, (CtAssignmentImpl| size: 42| alreadyanalyzed| LOCAL| INSERT_BEFORE) =2, (CtIfImpl| size: 43| alreadyanalyzed| LOCAL| INSERT_AFTER) =118, (CtReturnImpl| size: 43| compiles| LOCAL| INSERT_AFTER) =15, (CtAssignmentImpl| size: 18| compiles| LOCAL| INSERT_BEFORE) =4, (CtInvocationImpl| size: 34| notcompiles| LOCAL| INSERT_AFTER) =10, (CtInvocationImpl| size: 12| compiles| LOCAL| REPLACE) =1, (CtInvocationImpl| size: 34| notcompiles| LOCAL| INSERT_BEFORE) =15, (CtAssignmentImpl| size: 30| notcompiles| LOCAL| INSERT_AFTER) =16, (CtOperatorAssignmentImpl| size: 43| notcompiles| LOCAL| INSERT_AFTER) =11, (CtAssignmentImpl| size: 103| notcompiles| LOCAL| INSERT_BEFORE) =53, (CtAssignmentImpl| size: 18| notcompiles| LOCAL| INSERT_AFTER) =9, (CtInvocationImpl| size: 18| notcompiles| LOCAL| REPLACE) =20, (CtAssignmentImpl| size: 34| notcompiles| LOCAL| INSERT_AFTER) =11, (CtUnaryOperatorImpl| size: 42| notcompiles| LOCAL| INSERT_AFTER) =9, (CtLocalVariableImpl| size: 43| alreadyanalyzed| LOCAL| INSERT_AFTER) =542, (CtInvocationImpl| size: 9| alreadyanalyzed| LOCAL| REPLACE) =181, (CtReturnImpl| size: 42| notcompiles| LOCAL| INSERT_BEFORE) =32, (CtInvocationImpl| size: 8| compiles| LOCAL| REPLACE) =1, (CtReturnImpl| size: 103| compiles| LOCAL| INSERT_BEFORE) =73, (CtInvocationImpl| size: 103| notcompiles| LOCAL| INSERT_BEFORE) =72, (CtOperatorAssignmentImpl| size: 5| compiles| LOCAL| REPLACE) =6, (CtInvocationImpl| size: 8| alreadyanalyzed| LOCAL| REPLACE) =14, (CtOperatorAssignmentImpl| size: 2| alreadyanalyzed| LOCAL| REPLACE) =41, (CtReturnImpl| size: 103| notcompiles| LOCAL| INSERT_AFTER) =80, (CtReturnImpl| size: 42| alreadyanalyzed| LOCAL| INSERT_AFTER) =306, (CtInvocationImpl| size: 9| compiles| LOCAL| REPLACE) =3, (CtIfImpl| size: 34| alreadyanalyzed| LOCAL| INSERT_BEFORE) =285, (CtIfImpl| size: 103| notcompiles| LOCAL| INSERT_AFTER) =129, (CtReturnImpl| size: 34| notcompiles| LOCAL| INSERT_AFTER) =11, (CtAssignmentImpl| size: 34| alreadyanalyzed| LOCAL| INSERT_BEFORE) =522, (CtAssignmentImpl| size: 34| alreadyanalyzed| LOCAL| INSERT_AFTER) =232, (CtForImpl| size: 42| compiles| LOCAL| INSERT_BEFORE) =12, (CtInvocationImpl| size: 8| notcompiles| LOCAL| REPLACE) =6, (CtLocalVariableImpl| size: 103| alreadyanalyzed| LOCAL| INSERT_BEFORE) =2442, (CtOperatorAssignmentImpl| size: 5| notcompiles| LOCAL| REPLACE) =6, (CtIfImpl| size: 20| notcompiles| LOCAL| REPLACE) =28, (CtLocalVariableImpl| size: 42| compiles| LOCAL| INSERT_AFTER) =17, (CtAssignmentImpl| size: 5| notcompiles| LOCAL| REPLACE) =1, (CtInvocationImpl| size: 103| notcompiles| LOCAL| INSERT_AFTER) =59, (CtReturnImpl| size: 9| notcompiles| LOCAL| REPLACE) =1, (CtAssignmentImpl| size: 34| compiles| LOCAL| INSERT_BEFORE) =13, (CtInvocationImpl| size: 34| alreadyanalyzed| LOCAL| INSERT_BEFORE) =160, (CtLocalVariableImpl| size: 3| alreadyanalyzed| LOCAL| REPLACE) =69, (CtAssignmentImpl| size: 18| compiles| LOCAL| INSERT_AFTER) =3, (CtReturnImpl| size: 236| compiles| LOCAL| REPLACE) =2, (CtIfImpl| size: 43| notcompiles| LOCAL| INSERT_BEFORE) =14, (CtReturnImpl| size: 236| alreadyanalyzed| LOCAL| REPLACE) =1, (CtInvocationImpl| size: 5| alreadyanalyzed| LOCAL| REPLACE) =162, (CtReturnImpl| size: 42| notcompiles| LOCAL| INSERT_AFTER) =34, (CtAssignmentImpl| size: 8| compiles| LOCAL| REPLACE) =4, (CtForImpl| size: 42| alreadyanalyzed| LOCAL| INSERT_AFTER) =28, (CtInvocationImpl| size: 42| notcompiles| LOCAL| INSERT_BEFORE) =13, (CtAssignmentImpl| size: 34| notcompiles| LOCAL| INSERT_BEFORE) =14, (CtOperatorAssignmentImpl| size: 103| notcompiles| LOCAL| INSERT_AFTER) =38, (CtForImpl| size: 34| notcompiles| LOCAL| INSERT_BEFORE) =14, (CtLocalVariableImpl| size: 42| compiles| LOCAL| INSERT_BEFORE) =14, (CtAssignmentImpl| size: 103| notcompiles| LOCAL| INSERT_AFTER) =36, (CtIfImpl| size: 12| compiles| LOCAL| REPLACE) =74, (CtIfImpl| size: 2| notcompiles| LOCAL| REPLACE) =1, (CtIfImpl| size: 12| notcompiles| LOCAL| REPLACE) =50, (CtForImpl| size: 42| compiles| LOCAL| INSERT_AFTER) =21, (CtReturnImpl| size: 42| compiles| LOCAL| INSERT_AFTER) =44, (CtForImpl| size: 103| notcompiles| LOCAL| INSERT_BEFORE) =23, (CtForImpl| size: 42| notcompiles| LOCAL| INSERT_BEFORE) =8, (CtAssignmentImpl| size: 42| notcompiles| LOCAL| INSERT_BEFORE) =4, (CtLocalVariableImpl| size: 103| compiles| LOCAL| INSERT_AFTER) =234, (CtReturnImpl| size: 9| compiles| LOCAL| REPLACE) =18, (CtOperatorAssignmentImpl| size: 34| alreadyanalyzed| LOCAL| INSERT_AFTER) =47, (CtForImpl| size: 3| alreadyanalyzed| LOCAL| REPLACE) =161, (CtOperatorAssignmentImpl| size: 5| alreadyanalyzed| LOCAL| REPLACE) =421, (CtReturnImpl| size: 6| alreadyanalyzed| LOCAL| REPLACE) =125, (CtInvocationImpl| size: 18| compiles| LOCAL| REPLACE) =9, (CtReturnImpl| size: 43| alreadyanalyzed| LOCAL| INSERT_BEFORE) =131, (CtIfImpl| size: 103| compiles| LOCAL| INSERT_AFTER) =214, (CtAssignmentImpl| size: 15| notcompiles| LOCAL| REPLACE) =15, (CtLocalVariableImpl| size: 17| compiles| LOCAL| REPLACE) =62, (CtOperatorAssignmentImpl| size: 43| compiles| LOCAL| INSERT_BEFORE) =23, (CtForImpl| size: 43| compiles| LOCAL| INSERT_AFTER) =23, (CtAssignmentImpl| size: 103| alreadyanalyzed| LOCAL| INSERT_AFTER) =66, (CtAssignmentImpl| size: 42| compiles| LOCAL| INSERT_AFTER) =16, (CtOperatorAssignmentImpl| size: 34| compiles| LOCAL| INSERT_BEFORE) =22, (CtForImpl| size: 43| alreadyanalyzed| LOCAL| INSERT_AFTER) =138, (CtInvocationImpl| size: 34| compiles| LOCAL| INSERT_BEFORE) =22, (CtLocalVariableImpl| size: 42| notcompiles| LOCAL| INSERT_AFTER) =10, (CtForImpl| size: 2| notcompiles| LOCAL| REPLACE) =3, (CtIfImpl| size: 34| alreadyanalyzed| LOCAL| INSERT_AFTER) =149, (CtUnaryOperatorImpl| size: 42| alreadyanalyzed| LOCAL| INSERT_AFTER) =7, (CtInvocationImpl| size: 34| alreadyanalyzed| LOCAL| INSERT_AFTER) =56, (CtInvocationImpl| size: 42| alreadyanalyzed| LOCAL| INSERT_BEFORE) =35, (CtOperatorAssignmentImpl| size: 2| notcompiles| LOCAL| REPLACE) =1, (CtIfImpl| size: 43| compiles| LOCAL| INSERT_BEFORE) =15, (CtInvocationImpl| size: 5| compiles| LOCAL| REPLACE) =6, (CtUnaryOperatorImpl| size: 42| compiles| LOCAL| INSERT_BEFORE) =22, (CtLocalVariableImpl| size: 9| compiles| LOCAL| REPLACE) =24, (CtReturnImpl| size: 15| compiles| LOCAL| REPLACE) =9, (CtLocalVariableImpl| size: 43| compiles| LOCAL| INSERT_BEFORE) =81, (CtAssignmentImpl| size: 24| alreadyanalyzed| LOCAL| REPLACE) =1652, (CtLocalVariableImpl| size: 42| alreadyanalyzed| LOCAL| INSERT_AFTER) =15, (CtReturnImpl| size: 8| notcompiles| LOCAL| REPLACE) =4, (CtLocalVariableImpl| size: 103| notcompiles| LOCAL| INSERT_BEFORE) =111, (CtIfImpl| size: 43| alreadyanalyzed| LOCAL| INSERT_BEFORE) =37, (CtReturnImpl| size: 34| compiles| LOCAL| INSERT_AFTER) =16, (CtAssignmentImpl| size: 30| notcompiles| LOCAL| INSERT_BEFORE) =12, (CtIfImpl| size: 34| notcompiles| LOCAL| INSERT_BEFORE) =17, (CtIfImpl| size: 43| notcompiles| LOCAL| INSERT_AFTER) =16, (CtForImpl| size: 103| compiles| LOCAL| INSERT_BEFORE) =50, (CtInvocationImpl| size: 42| compiles| LOCAL| INSERT_AFTER) =34, (CtInvocationImpl| size: 9| notcompiles| LOCAL| REPLACE) =11, (CtLocalVariableImpl| size: 34| compiles| LOCAL| INSERT_BEFORE) =13, (CtOperatorAssignmentImpl| size: 34| notcompiles| LOCAL| INSERT_AFTER) =11, (CtOperatorAssignmentImpl| size: 43| alreadyanalyzed| LOCAL| INSERT_BEFORE) =448, (CtAssignmentImpl| size: 30| compiles| LOCAL| INSERT_BEFORE) =15, (CtAssignmentImpl| size: 34| compiles| LOCAL| INSERT_AFTER) =16, (CtOperatorAssignmentImpl| size: 34| alreadyanalyzed| LOCAL| INSERT_BEFORE) =243, (CtLocalVariableImpl| size: 34| alreadyanalyzed| LOCAL| INSERT_AFTER) =354, (CtLocalVariableImpl| size: 34| alreadyanalyzed| LOCAL| INSERT_BEFORE) =697, (CtIfImpl| size: 103| alreadyanalyzed| LOCAL| INSERT_AFTER) =284, (CtIfImpl| size: 20| compiles| LOCAL| REPLACE) =122, (CtReturnImpl| size: 103| notcompiles| LOCAL| INSERT_BEFORE) =81, (CtInvocationImpl| size: 5| notcompiles| LOCAL| REPLACE) =2, (CtIfImpl| size: 103| alreadyanalyzed| LOCAL| INSERT_BEFORE) =236, (CtOperatorAssignmentImpl| size: 43| compiles| LOCAL| INSERT_AFTER) =19, (CtOperatorAssignmentImpl| size: 103| alreadyanalyzed| LOCAL| INSERT_AFTER) =80, (CtLocalVariableImpl| size: 42| alreadyanalyzed| LOCAL| INSERT_BEFORE) =16, (CtForImpl| size: 3| notcompiles| LOCAL| REPLACE) =4, (CtReturnImpl| size: 43| notcompiles| LOCAL| INSERT_BEFORE) =14, (CtReturnImpl| size: 103| alreadyanalyzed| LOCAL| INSERT_BEFORE) =2945, (CtReturnImpl| size: 1529| compiles| LOCAL| INSERT_AFTER) =2, (CtIfImpl| size: 42| alreadyanalyzed| LOCAL| INSERT_AFTER) =169, (CtForImpl| size: 1| alreadyanalyzed| LOCAL| REPLACE) =10, (CtInvocationImpl| size: 34| compiles| LOCAL| INSERT_AFTER) =16, (CtAssignmentImpl| size: 103| alreadyanalyzed| LOCAL| INSERT_BEFORE) =231, (CtForImpl| size: 42| alreadyanalyzed| LOCAL| INSERT_BEFORE) =5, (CtReturnImpl| size: 1529| notcompiles| LOCAL| INSERT_BEFORE) =2, (CtOperatorAssignmentImpl| size: 3| alreadyanalyzed| LOCAL| REPLACE) =80, (CtIfImpl| size: 103| notcompiles| LOCAL| INSERT_BEFORE) =122, (CtForImpl| size: 2| alreadyanalyzed| LOCAL| REPLACE) =71, (CtAssignmentImpl| size: 18| alreadyanalyzed| LOCAL| INSERT_BEFORE) =1, (CtIfImpl| size: 2| alreadyanalyzed| LOCAL| REPLACE) =40, (CtAssignmentImpl| size: 24| compiles| LOCAL| REPLACE) =23, (CtOperatorAssignmentImpl| size: 34| compiles| LOCAL| INSERT_AFTER) =20, (CtReturnImpl| size: 1529| compiles| LOCAL| INSERT_BEFORE) =2, (CtForImpl| size: 103| alreadyanalyzed| LOCAL| INSERT_AFTER) =65, (CtInvocationImpl| size: 43| compiles| LOCAL| INSERT_AFTER) =15, (CtIfImpl| size: 4| compiles| LOCAL| REPLACE) =3, (CtForImpl| size: 103| compiles| LOCAL| INSERT_AFTER) =59, (CtLocalVariableImpl| size: 103| compiles| LOCAL| INSERT_BEFORE) =203, (CtInvocationImpl| size: 103| compiles| LOCAL| INSERT_AFTER) =75, (CtAssignmentImpl| size: 3| alreadyanalyzed| LOCAL| REPLACE) =34, (CtAssignmentImpl| size: 3| compiles| LOCAL| REPLACE) =2, (CtForImpl| size: 34| alreadyanalyzed| LOCAL| INSERT_AFTER) =23, (CtForImpl| size: 34| compiles| LOCAL| INSERT_BEFORE) =26, (CtReturnImpl| size: 42| alreadyanalyzed| LOCAL| INSERT_BEFORE) =520, (CtAssignmentImpl| size: 42| compiles| LOCAL| INSERT_BEFORE) =10, (CtIfImpl| size: 103| compiles| LOCAL| INSERT_BEFORE) =218, (CtUnaryOperatorImpl| size: 42| compiles| LOCAL| INSERT_AFTER) =15, (CtReturnImpl| size: 15| notcompiles| LOCAL| REPLACE) =13, (CtForImpl| size: 103| alreadyanalyzed| LOCAL| INSERT_BEFORE) =29, (CtLocalVariableImpl| size: 1| alreadyanalyzed| LOCAL| REPLACE) =17, (CtAssignmentImpl| size: 24| notcompiles| LOCAL| REPLACE) =22, (CtInvocationImpl| size: 18| compiles| LOCAL| INSERT_AFTER) =1, (CtIfImpl| size: 42| compiles| LOCAL| INSERT_BEFORE) =99, (CtInvocationImpl| size: 42| alreadyanalyzed| LOCAL| INSERT_AFTER) =32, (CtInvocationImpl| size: 18| notcompiles| LOCAL| INSERT_BEFORE) =11, (CtForImpl| size: 43| alreadyanalyzed| LOCAL| INSERT_BEFORE) =27, (CtReturnImpl| size: 103| alreadyanalyzed| LOCAL| INSERT_AFTER) =2347, (CtReturnImpl| size: 1529| notcompiles| LOCAL| INSERT_AFTER) =1, (CtAssignmentImpl| size: 18| notcompiles| LOCAL| INSERT_BEFORE) =1, (CtOperatorAssignmentImpl| size: 43| alreadyanalyzed| LOCAL| INSERT_AFTER) =26, (CtReturnImpl| size: 103| compiles| LOCAL| INSERT_AFTER) =74, (CtInvocationImpl| size: 18| compiles| LOCAL| INSERT_BEFORE) =5, (CtReturnImpl| size: 236| notcompiles| LOCAL| REPLACE) =7, (CtReturnImpl| size: 43| alreadyanalyzed| LOCAL| INSERT_AFTER) =27, (CtForImpl| size: 34| notcompiles| LOCAL| INSERT_AFTER) =6, (CtInvocationImpl| size: 43| alreadyanalyzed| LOCAL| INSERT_AFTER) =36, (CtIfImpl| size: 2| compiles| LOCAL| REPLACE) =1, (CtIfImpl| size: 34| notcompiles| LOCAL| INSERT_AFTER) =16, (CtForImpl| size: 43| notcompiles| LOCAL| INSERT_AFTER) =14, (CtLocalVariableImpl| size: 34| compiles| LOCAL| INSERT_AFTER) =13}
#gen: 4731
#patches: 0
#RightCompilation: 2689
#WrongCompilation: 2042
#FailingTestCaseExecution: 2690
#RegressionTestExecution: 0
#TestcasesExecutedval1: 40350
#TestcasesExecutedval2: 0
#FailingTestCase: 15
#RegressionTestCases: 0
#OfAppliedOp: 4731
#NotAppliedOp: 0
#InmutatedGen: 1403
#unfinishValidation: 0
#ing {CtLocalVariableImpl=1465, CtForImpl=477, CtReturnImpl=739, CtAssignmentImpl=596, CtOperatorAssignmentImpl=539, CtInvocationImpl=670, CtIfImpl=1582, CtUnaryOperatorImpl=66}
#untilcompile {1=1056, 2=569, 3=337, 4=196, 5=158, 6=108, 7=83, 8=64, 9=62, 10=43, 11=29, 12=45, 13=34, 14=16, 15=43, 17=67, 16=32, 19=37, 18=53, 21=22, 20=41, 23=18, 22=30, 25=21, 24=20, 27=11, 26=15, 29=5, 28=7, 31=8, 30=12, 34=23, 35=14, 32=7, 33=7, 38=4, 39=6, 36=5, 37=11, 42=10, 43=8, 40=10, 41=8, 46=5, 44=6, 45=5, 51=4, 50=6, 290=1, 49=4, 48=8, 55=2, 54=3, 53=5, 52=2, 59=3, 57=2, 56=1, 63=4, 61=1, 68=1, 69=1, 70=3, 71=2, 64=1, 65=2, 66=6, 67=2, 77=2, 78=2, 79=2, 74=2, 85=2, 324=1, 86=1, 83=2, 82=1, 95=1, 94=1, 102=1, 103=21, 96=1, 110=2, 111=1, 108=2, 109=3, 106=8, 107=5, 104=4, 105=5, 117=2, 116=2, 115=1, 114=1, 112=4, 126=2, 125=3, 123=3, 121=1, 120=5, 137=1, 136=1, 141=1, 140=2, 143=1, 129=1, 128=1, 132=1, 135=1, 158=1, 145=1, 146=1, 149=2, 150=1, 171=1, 169=1, 166=2, 187=1, 207=1, 206=1, 192=1, 195=1, 209=1, 232=2, 227=1}
2015-08-18 21:00:44,093 INFO main - Time Evolution(ms): 3660555
2015-08-18 21:00:44,093 INFO fr.inria.main.AbstractMain - Time Total(ms): 3929975


Node: graphene-5.nancy.grid5000.fr


Date: Tue Aug 18 23:00:44 CEST 2015


