export PATH="/home/tdurieux/defects4j/framework/bin:$PATH";export JAVA_TOOL_OPTIONS=-Dfile.encoding=UTF8;export PATH="/usr/lib/jvm/java-1.7.0-openjdk-amd64/bin/:$PATH";cp -r /home/tdurieux/projects/chart/chart_15 /tmp/chart_15_Kali;cd /tmp/chart_15_Kali;defects4j compile;mkdir lib/;cp -r /home/tdurieux/defects4j/framework/projects/lib/* lib/;cp -r /home/tdurieux/defects4j/framework/projects/Chart/lib/* lib/;find . -type f -name "package-info.java" -delete;
/home/tdurieux/defects4j-repair/src/python/core/../../../results/2015-august/Chart/15/Kali/result
cd /tmp/chart_15_Kali;export JAVA_TOOL_OPTIONS=-Dfile.encoding=UTF8;export PATH="/usr/lib/jvm/java-1.7.0-openjdk-amd64/bin/:$PATH";time java  -cp /home/tdurieux/defects4j-repair/src/python/core/../../..//libs/astor.jar fr.inria.main.evolution.MainjGenProg -mode statement-remove -location . -dependencies lib/ -failing org.jfree.chart.plot.junit.PiePlot3DTests: -package org.jfree -jvm4testexecution /usr/lib/jvm/java-1.7.0-openjdk-amd64/bin/ -javacompliancelevel 4 -maxgen 1000000 -seed 10 -maxtime 60  -scope local  -stopfirst true -flthreshold 0 -population 1 -srcjavafolder source/ -srctestfolder tests/ -binjavafolder build/ -bintestfolder build-tests/;echo "

Node: `hostname`
";echo "
Date: `date`
";rm -rf /tmp/chart_15_Kali;

2015-08-18 23:20:34,936 INFO main - End Repair Loops: Found solution
2015-08-18 23:20:34,936 INFO main - Solution stored at: ./outputMutation//MainjGenProg-.//src/
2015-08-18 23:20:34,936 INFO main - 
Number solutions:47
2015-08-18 23:20:34,936 INFO main - f (sol): 0.0, [Variant id: 15 (SOL) , #gens: 1044, #ops: 1, parent:1]
2015-08-18 23:20:34,936 INFO main - f (sol): 0.0, [Variant id: 17 (SOL) , #gens: 1044, #ops: 1, parent:1]
2015-08-18 23:20:34,936 INFO main - f (sol): 0.0, [Variant id: 19 (SOL) , #gens: 1044, #ops: 1, parent:1]
2015-08-18 23:20:34,936 INFO main - f (sol): 0.0, [Variant id: 21 (SOL) , #gens: 1044, #ops: 1, parent:1]
2015-08-18 23:20:34,936 INFO main - f (sol): 0.0, [Variant id: 25 (SOL) , #gens: 1044, #ops: 1, parent:1]
2015-08-18 23:20:34,936 INFO main - f (sol): 0.0, [Variant id: 27 (SOL) , #gens: 1044, #ops: 1, parent:1]
2015-08-18 23:20:34,936 INFO main - f (sol): 0.0, [Variant id: 29 (SOL) , #gens: 1044, #ops: 1, parent:1]
2015-08-18 23:20:34,936 INFO main - f (sol): 0.0, [Variant id: 31 (SOL) , #gens: 1044, #ops: 1, parent:1]
2015-08-18 23:20:34,936 INFO main - f (sol): 0.0, [Variant id: 33 (SOL) , #gens: 1044, #ops: 1, parent:1]
2015-08-18 23:20:34,936 INFO main - f (sol): 0.0, [Variant id: 35 (SOL) , #gens: 1044, #ops: 1, parent:1]
2015-08-18 23:20:34,936 INFO main - f (sol): 0.0, [Variant id: 39 (SOL) , #gens: 1044, #ops: 1, parent:1]
2015-08-18 23:20:34,936 INFO main - f (sol): 0.0, [Variant id: 41 (SOL) , #gens: 1044, #ops: 1, parent:1]
2015-08-18 23:20:34,936 INFO main - f (sol): 0.0, [Variant id: 43 (SOL) , #gens: 1044, #ops: 1, parent:1]
2015-08-18 23:20:34,936 INFO main - f (sol): 0.0, [Variant id: 45 (SOL) , #gens: 1044, #ops: 1, parent:1]
2015-08-18 23:20:34,936 INFO main - f (sol): 0.0, [Variant id: 47 (SOL) , #gens: 1044, #ops: 1, parent:1]
2015-08-18 23:20:34,936 INFO main - f (sol): 0.0, [Variant id: 49 (SOL) , #gens: 1044, #ops: 1, parent:1]
2015-08-18 23:20:34,936 INFO main - f (sol): 0.0, [Variant id: 51 (SOL) , #gens: 1044, #ops: 1, parent:1]
2015-08-18 23:20:34,936 INFO main - f (sol): 0.0, [Variant id: 55 (SOL) , #gens: 1044, #ops: 1, parent:1]
2015-08-18 23:20:34,936 INFO main - f (sol): 0.0, [Variant id: 59 (SOL) , #gens: 1044, #ops: 1, parent:1]
2015-08-18 23:20:34,936 INFO main - f (sol): 0.0, [Variant id: 113 (SOL) , #gens: 1044, #ops: 1, parent:1]
2015-08-18 23:20:34,936 INFO main - f (sol): 0.0, [Variant id: 115 (SOL) , #gens: 1044, #ops: 1, parent:1]
2015-08-18 23:20:34,936 INFO main - f (sol): 0.0, [Variant id: 403 (SOL) , #gens: 1044, #ops: 1, parent:1]
2015-08-18 23:20:34,936 INFO main - f (sol): 0.0, [Variant id: 405 (SOL) , #gens: 1044, #ops: 1, parent:1]
2015-08-18 23:20:34,936 INFO main - f (sol): 0.0, [Variant id: 407 (SOL) , #gens: 1044, #ops: 1, parent:1]
2015-08-18 23:20:34,936 INFO main - f (sol): 0.0, [Variant id: 715 (SOL) , #gens: 1044, #ops: 1, parent:1]
2015-08-18 23:20:34,936 INFO main - f (sol): 0.0, [Variant id: 717 (SOL) , #gens: 1044, #ops: 1, parent:1]
2015-08-18 23:20:34,937 INFO main - f (sol): 0.0, [Variant id: 721 (SOL) , #gens: 1044, #ops: 1, parent:1]
2015-08-18 23:20:34,937 INFO main - f (sol): 0.0, [Variant id: 723 (SOL) , #gens: 1044, #ops: 1, parent:1]
2015-08-18 23:20:34,937 INFO main - f (sol): 0.0, [Variant id: 725 (SOL) , #gens: 1044, #ops: 1, parent:1]
2015-08-18 23:20:34,937 INFO main - f (sol): 0.0, [Variant id: 727 (SOL) , #gens: 1044, #ops: 1, parent:1]
2015-08-18 23:20:34,937 INFO main - f (sol): 0.0, [Variant id: 731 (SOL) , #gens: 1044, #ops: 1, parent:1]
2015-08-18 23:20:34,937 INFO main - f (sol): 0.0, [Variant id: 733 (SOL) , #gens: 1044, #ops: 1, parent:1]
2015-08-18 23:20:34,937 INFO main - f (sol): 0.0, [Variant id: 735 (SOL) , #gens: 1044, #ops: 1, parent:1]
2015-08-18 23:20:34,937 INFO main - f (sol): 0.0, [Variant id: 741 (SOL) , #gens: 1044, #ops: 1, parent:1]
2015-08-18 23:20:34,937 INFO main - f (sol): 0.0, [Variant id: 745 (SOL) , #gens: 1044, #ops: 1, parent:1]
2015-08-18 23:20:34,937 INFO main - f (sol): 0.0, [Variant id: 747 (SOL) , #gens: 1044, #ops: 1, parent:1]
2015-08-18 23:20:34,937 INFO main - f (sol): 0.0, [Variant id: 749 (SOL) , #gens: 1044, #ops: 1, parent:1]
2015-08-18 23:20:34,937 INFO main - f (sol): 0.0, [Variant id: 751 (SOL) , #gens: 1044, #ops: 1, parent:1]
2015-08-18 23:20:34,937 INFO main - f (sol): 0.0, [Variant id: 753 (SOL) , #gens: 1044, #ops: 1, parent:1]
2015-08-18 23:20:34,937 INFO main - f (sol): 0.0, [Variant id: 757 (SOL) , #gens: 1044, #ops: 1, parent:1]
2015-08-18 23:20:34,937 INFO main - f (sol): 0.0, [Variant id: 761 (SOL) , #gens: 1044, #ops: 1, parent:1]
2015-08-18 23:20:34,937 INFO main - f (sol): 0.0, [Variant id: 765 (SOL) , #gens: 1044, #ops: 1, parent:1]
2015-08-18 23:20:34,937 INFO main - f (sol): 0.0, [Variant id: 767 (SOL) , #gens: 1044, #ops: 1, parent:1]
2015-08-18 23:20:34,937 INFO main - f (sol): 0.0, [Variant id: 769 (SOL) , #gens: 1044, #ops: 1, parent:1]
2015-08-18 23:20:34,937 INFO main - f (sol): 0.0, [Variant id: 771 (SOL) , #gens: 1044, #ops: 1, parent:1]
2015-08-18 23:20:34,937 INFO main - f (sol): 0.0, [Variant id: 774 (SOL) , #gens: 1044, #ops: 1, parent:1]
2015-08-18 23:20:34,937 INFO main - f (sol): 0.0, [Variant id: 775 (SOL) , #gens: 1044, #ops: 1, parent:1]
2015-08-18 23:20:34,937 INFO main - 
All variants:
2015-08-18 23:20:34,937 INFO main - f 1.0, [Variant id: 1, #gens: 1044, #ops: 0, parent:-]
2015-08-18 23:20:34,937 INFO main - 
Solution details
2015-08-18 23:20:34,937 WARN spoon.support.StandardEnvironment - warning: ignoring inconsistent parent for CtCodeSnippetExpressionImpl (CtIfImpl != RootElement)null
2015-08-18 23:20:34,937 WARN spoon.support.StandardEnvironment - warning: ignoring inconsistent parent for CtReturnImpl (CtIfImpl != RootElement)null
2015-08-18 23:20:34,937 WARN spoon.support.StandardEnvironment - warning: ignoring inconsistent parent for CtCodeSnippetExpressionImpl (CtIfImpl != RootElement)null
2015-08-18 23:20:34,937 WARN spoon.support.StandardEnvironment - warning: ignoring inconsistent parent for CtReturnImpl (CtIfImpl != RootElement)null
2015-08-18 23:20:34,937 WARN spoon.support.StandardEnvironment - warning: ignoring inconsistent parent for CtCodeSnippetExpressionImpl (CtIfImpl != RootElement)null
2015-08-18 23:20:34,937 WARN spoon.support.StandardEnvironment - warning: ignoring inconsistent parent for CtReturnImpl (CtIfImpl != RootElement)null
2015-08-18 23:20:34,937 WARN spoon.support.StandardEnvironment - warning: ignoring inconsistent parent for CtCodeSnippetExpressionImpl (CtIfImpl != RootElement)null
2015-08-18 23:20:34,937 WARN spoon.support.StandardEnvironment - warning: ignoring inconsistent parent for CtReturnImpl (CtIfImpl != RootElement)null
2015-08-18 23:20:34,937 WARN spoon.support.StandardEnvironment - warning: ignoring inconsistent parent for CtCodeSnippetExpressionImpl (CtIfImpl != RootElement)null
2015-08-18 23:20:34,937 WARN spoon.support.StandardEnvironment - warning: ignoring inconsistent parent for CtReturnImpl (CtIfImpl != RootElement)null
2015-08-18 23:20:34,937 WARN spoon.support.StandardEnvironment - warning: ignoring inconsistent parent for CtCodeSnippetExpressionImpl (CtIfImpl != RootElement)null
2015-08-18 23:20:34,937 WARN spoon.support.StandardEnvironment - warning: ignoring inconsistent parent for CtReturnImpl (CtIfImpl != RootElement)null
2015-08-18 23:20:34,937 WARN spoon.support.StandardEnvironment - warning: ignoring inconsistent parent for CtCodeSnippetExpressionImpl (CtIfImpl != RootElement)null
2015-08-18 23:20:34,937 WARN spoon.support.StandardEnvironment - warning: ignoring inconsistent parent for CtReturnImpl (CtIfImpl != RootElement)null
2015-08-18 23:20:34,937 WARN spoon.support.StandardEnvironment - warning: ignoring inconsistent parent for CtCodeSnippetExpressionImpl (CtIfImpl != RootElement)null
2015-08-18 23:20:34,937 WARN spoon.support.StandardEnvironment - warning: ignoring inconsistent parent for CtReturnImpl (CtIfImpl != RootElement)null
2015-08-18 23:20:34,937 WARN spoon.support.StandardEnvironment - warning: ignoring inconsistent parent for CtCodeSnippetExpressionImpl (CtIfImpl != RootElement)null
2015-08-18 23:20:34,937 WARN spoon.support.StandardEnvironment - warning: ignoring inconsistent parent for CtReturnImpl (CtIfImpl != RootElement)null
2015-08-18 23:20:34,937 WARN spoon.support.StandardEnvironment - warning: ignoring inconsistent parent for CtCodeSnippetExpressionImpl (CtIfImpl != RootElement)null
2015-08-18 23:20:34,937 WARN spoon.support.StandardEnvironment - warning: ignoring inconsistent parent for CtReturnImpl (CtIfImpl != RootElement)null
2015-08-18 23:20:34,937 WARN spoon.support.StandardEnvironment - warning: ignoring inconsistent parent for CtCodeSnippetExpressionImpl (CtIfImpl != RootElement)null
2015-08-18 23:20:34,937 WARN spoon.support.StandardEnvironment - warning: ignoring inconsistent parent for CtReturnImpl (CtIfImpl != RootElement)null
2015-08-18 23:20:34,938 WARN spoon.support.StandardEnvironment - warning: ignoring inconsistent parent for CtCodeSnippetExpressionImpl (CtIfImpl != RootElement)null
2015-08-18 23:20:34,938 WARN spoon.support.StandardEnvironment - warning: ignoring inconsistent parent for CtReturnImpl (CtIfImpl != RootElement)null
2015-08-18 23:20:34,938 WARN spoon.support.StandardEnvironment - warning: ignoring inconsistent parent for CtCodeSnippetExpressionImpl (CtIfImpl != RootElement)null
2015-08-18 23:20:34,938 WARN spoon.support.StandardEnvironment - warning: ignoring inconsistent parent for CtReturnImpl (CtIfImpl != RootElement)null
2015-08-18 23:20:34,938 WARN spoon.support.StandardEnvironment - warning: ignoring inconsistent parent for CtCodeSnippetExpressionImpl (CtIfImpl != RootElement)null
2015-08-18 23:20:34,938 WARN spoon.support.StandardEnvironment - warning: ignoring inconsistent parent for CtReturnImpl (CtIfImpl != RootElement)null
2015-08-18 23:20:34,938 WARN spoon.support.StandardEnvironment - warning: ignoring inconsistent parent for CtCodeSnippetExpressionImpl (CtIfImpl != RootElement)null
2015-08-18 23:20:34,938 WARN spoon.support.StandardEnvironment - warning: ignoring inconsistent parent for CtReturnImpl (CtIfImpl != RootElement)null
2015-08-18 23:20:34,938 WARN spoon.support.StandardEnvironment - warning: ignoring inconsistent parent for CtCodeSnippetExpressionImpl (CtIfImpl != RootElement)null
2015-08-18 23:20:34,938 WARN spoon.support.StandardEnvironment - warning: ignoring inconsistent parent for CtReturnImpl (CtIfImpl != RootElement)null
2015-08-18 23:20:34,938 WARN spoon.support.StandardEnvironment - warning: ignoring inconsistent parent for CtCodeSnippetExpressionImpl (CtIfImpl != RootElement)null
2015-08-18 23:20:34,938 WARN spoon.support.StandardEnvironment - warning: ignoring inconsistent parent for CtReturnImpl (CtIfImpl != RootElement)null
2015-08-18 23:20:34,938 WARN spoon.support.StandardEnvironment - warning: ignoring inconsistent parent for CtCodeSnippetExpressionImpl (CtIfImpl != RootElement)null
2015-08-18 23:20:34,938 WARN spoon.support.StandardEnvironment - warning: ignoring inconsistent parent for CtReturnImpl (CtIfImpl != RootElement)null
2015-08-18 23:20:34,938 WARN spoon.support.StandardEnvironment - warning: ignoring inconsistent parent for CtCodeSnippetExpressionImpl (CtIfImpl != RootElement)null
2015-08-18 23:20:34,938 WARN spoon.support.StandardEnvironment - warning: ignoring inconsistent parent for CtReturnImpl (CtIfImpl != RootElement)null
2015-08-18 23:20:34,938 WARN spoon.support.StandardEnvironment - warning: ignoring inconsistent parent for CtCodeSnippetExpressionImpl (CtIfImpl != RootElement)null
2015-08-18 23:20:34,938 WARN spoon.support.StandardEnvironment - warning: ignoring inconsistent parent for CtReturnImpl (CtIfImpl != RootElement)null
2015-08-18 23:20:34,938 WARN spoon.support.StandardEnvironment - warning: ignoring inconsistent parent for CtCodeSnippetExpressionImpl (CtIfImpl != RootElement)null
2015-08-18 23:20:34,938 WARN spoon.support.StandardEnvironment - warning: ignoring inconsistent parent for CtReturnImpl (CtIfImpl != RootElement)null
2015-08-18 23:20:34,939 WARN spoon.support.StandardEnvironment - warning: ignoring inconsistent parent for CtCodeSnippetExpressionImpl (CtIfImpl != RootElement)null
2015-08-18 23:20:34,939 WARN spoon.support.StandardEnvironment - warning: ignoring inconsistent parent for CtReturnImpl (CtIfImpl != RootElement)null
2015-08-18 23:20:34,939 WARN spoon.support.StandardEnvironment - warning: ignoring inconsistent parent for CtCodeSnippetExpressionImpl (CtIfImpl != RootElement)null
2015-08-18 23:20:34,939 WARN spoon.support.StandardEnvironment - warning: ignoring inconsistent parent for CtReturnImpl (CtIfImpl != RootElement)null
2015-08-18 23:20:34,939 WARN spoon.support.StandardEnvironment - warning: ignoring inconsistent parent for CtCodeSnippetExpressionImpl (CtIfImpl != RootElement)null
2015-08-18 23:20:34,939 WARN spoon.support.StandardEnvironment - warning: ignoring inconsistent parent for CtReturnImpl (CtIfImpl != RootElement)null
2015-08-18 23:20:34,939 WARN spoon.support.StandardEnvironment - warning: ignoring inconsistent parent for CtCodeSnippetExpressionImpl (CtIfImpl != RootElement)null
2015-08-18 23:20:34,939 WARN spoon.support.StandardEnvironment - warning: ignoring inconsistent parent for CtReturnImpl (CtIfImpl != RootElement)null
2015-08-18 23:20:34,939 WARN spoon.support.StandardEnvironment - warning: ignoring inconsistent parent for CtCodeSnippetExpressionImpl (CtIfImpl != RootElement)null
2015-08-18 23:20:34,939 WARN spoon.support.StandardEnvironment - warning: ignoring inconsistent parent for CtReturnImpl (CtIfImpl != RootElement)null
2015-08-18 23:20:34,939 WARN spoon.support.StandardEnvironment - warning: ignoring inconsistent parent for CtCodeSnippetExpressionImpl (CtIfImpl != RootElement)null
2015-08-18 23:20:34,939 WARN spoon.support.StandardEnvironment - warning: ignoring inconsistent parent for CtReturnImpl (CtIfImpl != RootElement)null
2015-08-18 23:20:34,939 WARN spoon.support.StandardEnvironment - warning: ignoring inconsistent parent for CtCodeSnippetExpressionImpl (CtIfImpl != RootElement)null
2015-08-18 23:20:34,939 WARN spoon.support.StandardEnvironment - warning: ignoring inconsistent parent for CtReturnImpl (CtIfImpl != RootElement)null
2015-08-18 23:20:34,939 WARN spoon.support.StandardEnvironment - warning: ignoring inconsistent parent for CtCodeSnippetExpressionImpl (CtIfImpl != RootElement)null
2015-08-18 23:20:34,939 WARN spoon.support.StandardEnvironment - warning: ignoring inconsistent parent for CtReturnImpl (CtIfImpl != RootElement)null
2015-08-18 23:20:34,939 WARN spoon.support.StandardEnvironment - warning: ignoring inconsistent parent for CtCodeSnippetExpressionImpl (CtIfImpl != RootElement)null
2015-08-18 23:20:34,939 WARN spoon.support.StandardEnvironment - warning: ignoring inconsistent parent for CtReturnImpl (CtIfImpl != RootElement)null
2015-08-18 23:20:34,940 WARN spoon.support.StandardEnvironment - warning: ignoring inconsistent parent for CtCodeSnippetExpressionImpl (CtIfImpl != RootElement)null
2015-08-18 23:20:34,940 WARN spoon.support.StandardEnvironment - warning: ignoring inconsistent parent for CtReturnImpl (CtIfImpl != RootElement)null
2015-08-18 23:20:34,940 WARN spoon.support.StandardEnvironment - warning: ignoring inconsistent parent for CtCodeSnippetExpressionImpl (CtIfImpl != RootElement)null
2015-08-18 23:20:34,940 WARN spoon.support.StandardEnvironment - warning: ignoring inconsistent parent for CtReturnImpl (CtIfImpl != RootElement)null
2015-08-18 23:20:34,940 WARN spoon.support.StandardEnvironment - warning: ignoring inconsistent parent for CtCodeSnippetExpressionImpl (CtIfImpl != RootElement)null
2015-08-18 23:20:34,940 WARN spoon.support.StandardEnvironment - warning: ignoring inconsistent parent for CtReturnImpl (CtIfImpl != RootElement)null
2015-08-18 23:20:34,940 WARN spoon.support.StandardEnvironment - warning: ignoring inconsistent parent for CtCodeSnippetExpressionImpl (CtIfImpl != RootElement)null
2015-08-18 23:20:34,940 WARN spoon.support.StandardEnvironment - warning: ignoring inconsistent parent for CtReturnImpl (CtIfImpl != RootElement)null
2015-08-18 23:20:34,940 WARN spoon.support.StandardEnvironment - warning: ignoring inconsistent parent for CtCodeSnippetExpressionImpl (CtIfImpl != RootElement)null
2015-08-18 23:20:34,940 WARN spoon.support.StandardEnvironment - warning: ignoring inconsistent parent for CtReturnImpl (CtIfImpl != RootElement)null
2015-08-18 23:20:34,940 WARN spoon.support.StandardEnvironment - warning: ignoring inconsistent parent for CtCodeSnippetExpressionImpl (CtIfImpl != RootElement)null
2015-08-18 23:20:34,940 WARN spoon.support.StandardEnvironment - warning: ignoring inconsistent parent for CtReturnImpl (CtIfImpl != RootElement)null
2015-08-18 23:20:34,940 WARN spoon.support.StandardEnvironment - warning: ignoring inconsistent parent for CtCodeSnippetExpressionImpl (CtIfImpl != RootElement)null
2015-08-18 23:20:34,940 WARN spoon.support.StandardEnvironment - warning: ignoring inconsistent parent for CtReturnImpl (CtIfImpl != RootElement)null
2015-08-18 23:20:34,941 WARN spoon.support.StandardEnvironment - warning: ignoring inconsistent parent for CtCodeSnippetExpressionImpl (CtIfImpl != RootElement)null
2015-08-18 23:20:34,941 WARN spoon.support.StandardEnvironment - warning: ignoring inconsistent parent for CtReturnImpl (CtIfImpl != RootElement)null
2015-08-18 23:20:34,941 WARN spoon.support.StandardEnvironment - warning: ignoring inconsistent parent for CtCodeSnippetExpressionImpl (CtIfImpl != RootElement)null
2015-08-18 23:20:34,941 WARN spoon.support.StandardEnvironment - warning: ignoring inconsistent parent for CtReturnImpl (CtIfImpl != RootElement)null
2015-08-18 23:20:34,941 WARN spoon.support.StandardEnvironment - warning: ignoring inconsistent parent for CtCodeSnippetExpressionImpl (CtIfImpl != RootElement)null
2015-08-18 23:20:34,941 WARN spoon.support.StandardEnvironment - warning: ignoring inconsistent parent for CtReturnImpl (CtIfImpl != RootElement)null
2015-08-18 23:20:34,941 WARN spoon.support.StandardEnvironment - warning: ignoring inconsistent parent for CtCodeSnippetExpressionImpl (CtIfImpl != RootElement)null
2015-08-18 23:20:34,941 WARN spoon.support.StandardEnvironment - warning: ignoring inconsistent parent for CtReturnImpl (CtIfImpl != RootElement)null
2015-08-18 23:20:34,941 WARN spoon.support.StandardEnvironment - warning: ignoring inconsistent parent for CtCodeSnippetExpressionImpl (CtIfImpl != RootElement)null
2015-08-18 23:20:34,941 WARN spoon.support.StandardEnvironment - warning: ignoring inconsistent parent for CtReturnImpl (CtIfImpl != RootElement)null
2015-08-18 23:20:34,941 WARN spoon.support.StandardEnvironment - warning: ignoring inconsistent parent for CtCodeSnippetExpressionImpl (CtIfImpl != RootElement)null
2015-08-18 23:20:34,941 WARN spoon.support.StandardEnvironment - warning: ignoring inconsistent parent for CtReturnImpl (CtIfImpl != RootElement)null
2015-08-18 23:20:34,942 WARN spoon.support.StandardEnvironment - warning: ignoring inconsistent parent for CtCodeSnippetExpressionImpl (CtIfImpl != RootElement)null
2015-08-18 23:20:34,942 WARN spoon.support.StandardEnvironment - warning: ignoring inconsistent parent for CtReturnImpl (CtIfImpl != RootElement)null
2015-08-18 23:20:34,942 WARN spoon.support.StandardEnvironment - warning: ignoring inconsistent parent for CtCodeSnippetExpressionImpl (CtIfImpl != RootElement)null
2015-08-18 23:20:34,942 WARN spoon.support.StandardEnvironment - warning: ignoring inconsistent parent for CtReturnImpl (CtIfImpl != RootElement)null
2015-08-18 23:20:34,942 WARN spoon.support.StandardEnvironment - warning: ignoring inconsistent parent for CtCodeSnippetExpressionImpl (CtIfImpl != RootElement)null
2015-08-18 23:20:34,942 WARN spoon.support.StandardEnvironment - warning: ignoring inconsistent parent for CtReturnImpl (CtIfImpl != RootElement)null
2015-08-18 23:20:34,942 INFO main - 
 --SOLUTIONS DESCRIPTION--

 ----
ProgramVariant 15
 
operation: INSERT_BEFORE
location= org.jfree.chart.plot.PiePlot3D
line= 230
original statement= org.jfree.chart.util.RectangleInsets insets = getInsets()
fixed statement= if (true)
	return ;

generation= 1
ingredientScope= -
 
 ----
ProgramVariant 17
 
operation: INSERT_BEFORE
location= org.jfree.chart.plot.PiePlot3D
line= 231
original statement= insets.trim(plotArea)
fixed statement= if (true)
	return ;

generation= 1
ingredientScope= -
 
 ----
ProgramVariant 19
 
operation: INSERT_BEFORE
location= org.jfree.chart.plot.PiePlot3D
line= 233
original statement= java.awt.geom.Rectangle2D originalPlotArea = ((java.awt.geom.Rectangle2D)(plotArea.clone()))
fixed statement= if (true)
	return ;

generation= 1
ingredientScope= -
 
 ----
ProgramVariant 21
 
operation: INSERT_BEFORE
location= org.jfree.chart.plot.PiePlot3D
line= 234
original statement= if (info != null) {
	info.setPlotArea(plotArea);
	info.setDataArea(plotArea);
} 
fixed statement= if (true)
	return ;

generation= 1
ingredientScope= -
 
 ----
ProgramVariant 25
 
operation: INSERT_BEFORE
location= org.jfree.chart.plot.PiePlot3D
line= 239
original statement= drawBackground(g2, plotArea)
fixed statement= if (true)
	return ;

generation= 1
ingredientScope= -
 
 ----
ProgramVariant 27
 
operation: INSERT_BEFORE
location= org.jfree.chart.plot.PiePlot3D
line= 241
original statement= java.awt.Shape savedClip = g2.getClip()
fixed statement= if (true)
	return ;

generation= 1
ingredientScope= -
 
 ----
ProgramVariant 29
 
operation: INSERT_BEFORE
location= org.jfree.chart.plot.PiePlot3D
line= 242
original statement= g2.clip(plotArea)
fixed statement= if (true)
	return ;

generation= 1
ingredientScope= -
 
 ----
ProgramVariant 31
 
operation: INSERT_BEFORE
location= org.jfree.chart.plot.PiePlot3D
line= 245
original statement= double gapPercent = getInteriorGap()
fixed statement= if (true)
	return ;

generation= 1
ingredientScope= -
 
 ----
ProgramVariant 33
 
operation: INSERT_BEFORE
location= org.jfree.chart.plot.PiePlot3D
line= 246
original statement= double labelPercent = 0.0
fixed statement= if (true)
	return ;

generation= 1
ingredientScope= -
 
 ----
ProgramVariant 35
 
operation: INSERT_BEFORE
location= org.jfree.chart.plot.PiePlot3D
line= 247
original statement= if ((getLabelGenerator()) != null) {
	labelPercent = (getLabelGap()) + (getMaximumLabelWidth());
} 
fixed statement= if (true)
	return ;

generation= 1
ingredientScope= -
 
 ----
ProgramVariant 39
 
operation: INSERT_BEFORE
location= org.jfree.chart.plot.PiePlot3D
line= 248
original statement= labelPercent = (getLabelGap()) + (getMaximumLabelWidth())
fixed statement= if (true)
	return ;

generation= 1
ingredientScope= -
 
 ----
ProgramVariant 41
 
operation: INSERT_BEFORE
location= org.jfree.chart.plot.PiePlot3D
line= 250
original statement= double gapHorizontal = ((plotArea.getWidth()) * (gapPercent + labelPercent)) * 2.0
fixed statement= if (true)
	return ;

generation= 1
ingredientScope= -
 
 ----
ProgramVariant 43
 
operation: INSERT_BEFORE
location= org.jfree.chart.plot.PiePlot3D
line= 252
original statement= double gapVertical = ((plotArea.getHeight()) * gapPercent) * 2.0
fixed statement= if (true)
	return ;

generation= 1
ingredientScope= -
 
 ----
ProgramVariant 45
 
operation: INSERT_BEFORE
location= org.jfree.chart.plot.PiePlot3D
line= 266
original statement= double linkX = (plotArea.getX()) + (gapHorizontal / 2)
fixed statement= if (true)
	return ;

generation= 1
ingredientScope= -
 
 ----
ProgramVariant 47
 
operation: INSERT_BEFORE
location= org.jfree.chart.plot.PiePlot3D
line= 267
original statement= double linkY = (plotArea.getY()) + (gapVertical / 2)
fixed statement= if (true)
	return ;

generation= 1
ingredientScope= -
 
 ----
ProgramVariant 49
 
operation: INSERT_BEFORE
location= org.jfree.chart.plot.PiePlot3D
line= 268
original statement= double linkW = (plotArea.getWidth()) - gapHorizontal
fixed statement= if (true)
	return ;

generation= 1
ingredientScope= -
 
 ----
ProgramVariant 51
 
operation: INSERT_BEFORE
location= org.jfree.chart.plot.PiePlot3D
line= 269
original statement= double linkH = (plotArea.getHeight()) - gapVertical
fixed statement= if (true)
	return ;

generation= 1
ingredientScope= -
 
 ----
ProgramVariant 55
 
operation: INSERT_BEFORE
location= org.jfree.chart.plot.PiePlot3D
line= 272
original statement= if (isCircular()) {
	double min = (java.lang.Math.min(linkW, linkH)) / 2;
	linkX = (((linkX + linkX) + linkW) / 2) - min;
	linkY = (((linkY + linkY) + linkH) / 2) - min;
	linkW = 2 * min;
	linkH = 2 * min;
} 
fixed statement= if (true)
	return ;

generation= 1
ingredientScope= -
 
 ----
ProgramVariant 59
 
operation: INSERT_BEFORE
location= org.jfree.chart.plot.PiePlot3D
line= 280
original statement= org.jfree.chart.plot.PiePlotState state = initialise(g2, plotArea, this, null, info)
fixed statement= if (true)
	return ;

generation= 1
ingredientScope= -
 
 ----
ProgramVariant 113
 
operation: INSERT_BEFORE
location= org.jfree.chart.JFreeChart
line= 1195
original statement= org.jfree.chart.entity.EntityCollection e = drawTitle(this.title, g2, nonTitleArea, (entities != null))
fixed statement= if (true)
	return ;

generation= 1
ingredientScope= -
 
 ----
ProgramVariant 115
 
operation: INSERT_BEFORE
location= org.jfree.chart.JFreeChart
line= 1197
original statement= if (e != null) {
	entities.addAll(e);
} 
fixed statement= if (true)
	return ;

generation= 1
ingredientScope= -
 
 ----
ProgramVariant 403
 
operation: INSERT_BEFORE
location= org.jfree.chart.JFreeChart
line= 1204
original statement= org.jfree.chart.title.Title currentTitle = ((org.jfree.chart.title.Title)(iterator.next()))
fixed statement= if (true)
	return ;

generation= 1
ingredientScope= -
 
 ----
ProgramVariant 405
 
operation: INSERT_BEFORE
location= org.jfree.chart.JFreeChart
line= 1205
original statement= org.jfree.chart.entity.EntityCollection e = drawTitle(currentTitle, g2, nonTitleArea, (entities != null))
fixed statement= if (true)
	return ;

generation= 1
ingredientScope= -
 
 ----
ProgramVariant 407
 
operation: INSERT_BEFORE
location= org.jfree.chart.JFreeChart
line= 1207
original statement= if (e != null) {
	entities.addAll(e);
} 
fixed statement= if (true)
	return ;

generation= 1
ingredientScope= -
 
 ----
ProgramVariant 715
 
operation: INSERT_BEFORE
location= org.jfree.chart.JFreeChart
line= 1136
original statement= notifyListeners(new org.jfree.chart.event.ChartProgressEvent(this , this , org.jfree.chart.event.ChartProgressEvent.DRAWING_STARTED , 0))
fixed statement= if (true)
	return ;

generation= 1
ingredientScope= -
 
 ----
ProgramVariant 717
 
operation: INSERT_BEFORE
location= org.jfree.chart.JFreeChart
line= 1140
original statement= if (info != null) {
	info.clear();
	info.setChartArea(chartArea);
} 
fixed statement= if (true)
	return ;

generation= 1
ingredientScope= -
 
 ----
ProgramVariant 721
 
operation: INSERT_BEFORE
location= org.jfree.chart.JFreeChart
line= 1146
original statement= java.awt.Shape savedClip = g2.getClip()
fixed statement= if (true)
	return ;

generation= 1
ingredientScope= -
 
 ----
ProgramVariant 723
 
operation: INSERT_BEFORE
location= org.jfree.chart.JFreeChart
line= 1147
original statement= g2.clip(chartArea)
fixed statement= if (true)
	return ;

generation= 1
ingredientScope= -
 
 ----
ProgramVariant 725
 
operation: INSERT_BEFORE
location= org.jfree.chart.JFreeChart
line= 1149
original statement= g2.addRenderingHints(this.renderingHints)
fixed statement= if (true)
	return ;

generation= 1
ingredientScope= -
 
 ----
ProgramVariant 727
 
operation: INSERT_BEFORE
location= org.jfree.chart.JFreeChart
line= 1152
original statement= if ((this.backgroundPaint) != null) {
	g2.setPaint(this.backgroundPaint);
	g2.fill(chartArea);
} 
fixed statement= if (true)
	return ;

generation= 1
ingredientScope= -
 
 ----
ProgramVariant 731
 
operation: INSERT_BEFORE
location= org.jfree.chart.JFreeChart
line= 1153
original statement= g2.setPaint(this.backgroundPaint)
fixed statement= if (true)
	return ;

generation= 1
ingredientScope= -
 
 ----
ProgramVariant 733
 
operation: INSERT_BEFORE
location= org.jfree.chart.JFreeChart
line= 1154
original statement= g2.fill(chartArea)
fixed statement= if (true)
	return ;

generation= 1
ingredientScope= -
 
 ----
ProgramVariant 735
 
operation: INSERT_BEFORE
location= org.jfree.chart.JFreeChart
line= 1157
original statement= if ((this.backgroundImage) != null) {
	java.awt.Composite originalComposite = g2.getComposite();
	g2.setComposite(java.awt.AlphaComposite.getInstance(java.awt.AlphaComposite.SRC_OVER, this.backgroundImageAlpha));
	java.awt.geom.Rectangle2D dest = new java.awt.geom.Rectangle2D.Double(0.0 , 0.0 , this.backgroundImage.getWidth(null) , this.backgroundImage.getHeight(null));
	org.jfree.chart.util.Align.align(dest, chartArea, this.backgroundImageAlignment);
	g2.drawImage(this.backgroundImage, ((int)(dest.getX())), ((int)(dest.getY())), ((int)(dest.getWidth())), ((int)(dest.getHeight())), null);
	g2.setComposite(originalComposite);
} 
fixed statement= if (true)
	return ;

generation= 1
ingredientScope= -
 
 ----
ProgramVariant 741
 
operation: INSERT_BEFORE
location= org.jfree.chart.JFreeChart
line= 1171
original statement= if (isBorderVisible()) {
	java.awt.Paint paint = getBorderPaint();
	java.awt.Stroke stroke = getBorderStroke();
	if ((paint != null) && (stroke != null)) {
		java.awt.geom.Rectangle2D borderArea = new java.awt.geom.Rectangle2D.Double(chartArea.getX() , chartArea.getY() , ((chartArea.getWidth()) - 1.0) , ((chartArea.getHeight()) - 1.0));
		g2.setPaint(paint);
		g2.setStroke(stroke);
		g2.draw(borderArea);
	} 
} 
fixed statement= if (true)
	return ;

generation= 1
ingredientScope= -
 
 ----
ProgramVariant 745
 
operation: INSERT_BEFORE
location= org.jfree.chart.JFreeChart
line= 1186
original statement= java.awt.geom.Rectangle2D nonTitleArea = new java.awt.geom.Rectangle2D.Double()
fixed statement= if (true)
	return ;

generation= 1
ingredientScope= -
 
 ----
ProgramVariant 747
 
operation: INSERT_BEFORE
location= org.jfree.chart.JFreeChart
line= 1187
original statement= nonTitleArea.setRect(chartArea)
fixed statement= if (true)
	return ;

generation= 1
ingredientScope= -
 
 ----
ProgramVariant 749
 
operation: INSERT_BEFORE
location= org.jfree.chart.JFreeChart
line= 1188
original statement= this.padding.trim(nonTitleArea)
fixed statement= if (true)
	return ;

generation= 1
ingredientScope= -
 
 ----
ProgramVariant 751
 
operation: INSERT_BEFORE
location= org.jfree.chart.JFreeChart
line= 1190
original statement= org.jfree.chart.entity.EntityCollection entities = null
fixed statement= if (true)
	return ;

generation= 1
ingredientScope= -
 
 ----
ProgramVariant 753
 
operation: INSERT_BEFORE
location= org.jfree.chart.JFreeChart
line= 1191
original statement= if (info != null) {
	entities = info.getEntityCollection();
} 
fixed statement= if (true)
	return ;

generation= 1
ingredientScope= -
 
 ----
ProgramVariant 757
 
operation: INSERT_BEFORE
location= org.jfree.chart.JFreeChart
line= 1194
original statement= if ((this.title) != null) {
	org.jfree.chart.entity.EntityCollection e = drawTitle(this.title, g2, nonTitleArea, (entities != null));
	if (e != null) {
		entities.addAll(e);
	} 
} 
fixed statement= if (true)
	return ;

generation= 1
ingredientScope= -
 
 ----
ProgramVariant 761
 
operation: INSERT_BEFORE
location= org.jfree.chart.JFreeChart
line= 1202
original statement= java.util.Iterator iterator = this.subtitles.iterator()
fixed statement= if (true)
	return ;

generation= 1
ingredientScope= -
 
 ----
ProgramVariant 765
 
operation: INSERT_BEFORE
location= org.jfree.chart.JFreeChart
line= 1203
original statement= while (iterator.hasNext()) {
	org.jfree.chart.title.Title currentTitle = ((org.jfree.chart.title.Title)(iterator.next()));
	org.jfree.chart.entity.EntityCollection e = drawTitle(currentTitle, g2, nonTitleArea, (entities != null));
	if (e != null) {
		entities.addAll(e);
	} 
}
fixed statement= if (true)
	return ;

generation= 1
ingredientScope= -
 
 ----
ProgramVariant 767
 
operation: INSERT_BEFORE
location= org.jfree.chart.JFreeChart
line= 1212
original statement= java.awt.geom.Rectangle2D plotArea = nonTitleArea
fixed statement= if (true)
	return ;

generation= 1
ingredientScope= -
 
 ----
ProgramVariant 769
 
operation: INSERT_BEFORE
location= org.jfree.chart.JFreeChart
line= 1215
original statement= org.jfree.chart.plot.PlotRenderingInfo plotInfo = null
fixed statement= if (true)
	return ;

generation= 1
ingredientScope= -
 
 ----
ProgramVariant 771
 
operation: INSERT_BEFORE
location= org.jfree.chart.JFreeChart
line= 1216
original statement= if (info != null) {
	plotInfo = info.getPlotInfo();
} 
fixed statement= if (true)
	return ;

generation= 1
ingredientScope= -
 
 ----
ProgramVariant 774
 
operation: DELETE
location= org.jfree.chart.JFreeChart
line= 1219
original statement= this.plot.draw(g2, plotArea, anchor, null, plotInfo)
fixed statement= this.plot.draw(g2, plotArea, anchor, null, plotInfo)
generation= 1
ingredientScope= -
 
 ----
ProgramVariant 775
 
operation: INSERT_BEFORE
location= org.jfree.chart.JFreeChart
line= 1219
original statement= this.plot.draw(g2, plotArea, anchor, null, plotInfo)
fixed statement= if (true)
	return ;

generation= 1
ingredientScope= -
 
2015-08-18 23:20:34,942 INFO main - 
----stats: 
2015-08-18 23:20:34,942 INFO main - 
spaces navigation: [0]: {}
#gen: 0
#patches: 47
#RightCompilation: 2308
#WrongCompilation: 358
#FailingTestCaseExecution: 2309
#RegressionTestExecution: 47
#TestcasesExecutedval1: 6903
#TestcasesExecutedval2: 84130
#FailingTestCase: 3
#RegressionTestCases: 1790
#OfAppliedOp: 0
#NotAppliedOp: 0
#InmutatedGen: 0
#unfinishValidation: 0
#ing {}
#untilcompile {}
2015-08-18 23:20:34,943 INFO fr.inria.main.AbstractMain - Time Total(ms): 2526935


Node: graphene-73.nancy.grid5000.fr


Date: Wed Aug 19 01:20:35 CEST 2015


